digraph "getprotobyname.c"
{
  edge [fontname="Helvetica",fontsize="10",labelfontname="Helvetica",labelfontsize="10"];
  node [fontname="Helvetica",fontsize="10",shape=record];
  Node3 [label="getprotobyname.c",height=0.2,width=0.4,color="black", fillcolor="grey75", style="filled", fontcolor="black"];
  Node3 -> Node4 [dir="back",color="midnightblue",fontsize="10",style="solid"];
  Node4 [label="getprotobyname_unittest.c",height=0.2,width=0.4,color="black", fillcolor="white", style="filled",URL="$getprotobyname__unittest_8c.html"];
}
