digraph "http_unittest.c"
{
  edge [fontname="Helvetica",fontsize="10",labelfontname="Helvetica",labelfontsize="10"];
  node [fontname="Helvetica",fontsize="10",shape=record];
  Node0 [label="http_unittest.c",height=0.2,width=0.4,color="black", fillcolor="grey75", style="filled", fontcolor="black"];
  Node0 -> Node1 [color="midnightblue",fontsize="10",style="solid"];
  Node1 [label="signal.h",height=0.2,width=0.4,color="grey75", fillcolor="white", style="filled"];
  Node0 -> Node2 [color="midnightblue",fontsize="10",style="solid"];
  Node2 [label="stdlib.h",height=0.2,width=0.4,color="grey75", fillcolor="white", style="filled"];
  Node0 -> Node3 [color="midnightblue",fontsize="10",style="solid"];
  Node3 [label="string.h",height=0.2,width=0.4,color="grey75", fillcolor="white", style="filled"];
  Node0 -> Node4 [color="midnightblue",fontsize="10",style="solid"];
  Node4 [label="glib.h",height=0.2,width=0.4,color="grey75", fillcolor="white", style="filled"];
  Node0 -> Node5 [color="midnightblue",fontsize="10",style="solid"];
  Node5 [label="check.h",height=0.2,width=0.4,color="grey75", fillcolor="white", style="filled"];
  Node0 -> Node6 [color="midnightblue",fontsize="10",style="solid"];
  Node6 [label="impl/framework.h",height=0.2,width=0.4,color="grey75", fillcolor="white", style="filled"];
  Node0 -> Node7 [color="midnightblue",fontsize="10",style="solid"];
  Node7 [label="http.c",height=0.2,width=0.4,color="black", fillcolor="white", style="filled",URL="$http_8c.html"];
  Node7 -> Node8 [color="midnightblue",fontsize="10",style="solid"];
  Node8 [label="errno.h",height=0.2,width=0.4,color="grey75", fillcolor="white", style="filled"];
  Node7 -> Node9 [color="midnightblue",fontsize="10",style="solid"];
  Node9 [label="inttypes.h",height=0.2,width=0.4,color="grey75", fillcolor="white", style="filled"];
  Node7 -> Node10 [color="midnightblue",fontsize="10",style="solid"];
  Node10 [label="netdb.h",height=0.2,width=0.4,color="grey75", fillcolor="white", style="filled"];
  Node7 -> Node11 [color="midnightblue",fontsize="10",style="solid"];
  Node11 [label="stdio.h",height=0.2,width=0.4,color="grey75", fillcolor="white", style="filled"];
  Node7 -> Node12 [color="midnightblue",fontsize="10",style="solid"];
  Node12 [label="time.h",height=0.2,width=0.4,color="grey75", fillcolor="white", style="filled"];
  Node7 -> Node13 [color="midnightblue",fontsize="10",style="solid"];
  Node13 [label="impl/i18n.h",height=0.2,width=0.4,color="grey75", fillcolor="white", style="filled"];
  Node7 -> Node6 [color="midnightblue",fontsize="10",style="solid"];
  Node7 -> Node14 [color="midnightblue",fontsize="10",style="solid"];
  Node14 [label="impl/receiver.h",height=0.2,width=0.4,color="grey75", fillcolor="white", style="filled"];
  Node7 -> Node15 [color="midnightblue",fontsize="10",style="solid"];
  Node15 [label="impl/socket.h",height=0.2,width=0.4,color="grey75", fillcolor="white", style="filled"];
  Node7 -> Node16 [color="midnightblue",fontsize="10",style="solid"];
  Node16 [label="pgm/if.h",height=0.2,width=0.4,color="grey75", fillcolor="white", style="filled"];
  Node7 -> Node17 [color="midnightblue",fontsize="10",style="solid"];
  Node17 [label="pgm/version.h",height=0.2,width=0.4,color="grey75", fillcolor="white", style="filled"];
  Node7 -> Node18 [color="midnightblue",fontsize="10",style="solid"];
  Node18 [label="pgm/http.h",height=0.2,width=0.4,color="grey75", fillcolor="white", style="filled"];
  Node7 -> Node19 [color="midnightblue",fontsize="10",style="solid"];
  Node19 [label="htdocs/404.html.h",height=0.2,width=0.4,color="grey75", fillcolor="white", style="filled"];
  Node7 -> Node20 [color="midnightblue",fontsize="10",style="solid"];
  Node20 [label="htdocs/base.css.h",height=0.2,width=0.4,color="grey75", fillcolor="white", style="filled"];
  Node7 -> Node21 [color="midnightblue",fontsize="10",style="solid"];
  Node21 [label="htdocs/robots.txt.h",height=0.2,width=0.4,color="grey75", fillcolor="white", style="filled"];
  Node7 -> Node22 [color="midnightblue",fontsize="10",style="solid"];
  Node22 [label="htdocs/xhtml10_strict.doctype.h",height=0.2,width=0.4,color="grey75", fillcolor="white", style="filled"];
}
