digraph "pgmMIB_unittest.c"
{
  edge [fontname="Helvetica",fontsize="10",labelfontname="Helvetica",labelfontsize="10"];
  node [fontname="Helvetica",fontsize="10",shape=record];
  Node0 [label="pgmMIB_unittest.c",height=0.2,width=0.4,color="black", fillcolor="grey75", style="filled", fontcolor="black"];
  Node0 -> Node1 [color="midnightblue",fontsize="10",style="solid"];
  Node1 [label="signal.h",height=0.2,width=0.4,color="grey75", fillcolor="white", style="filled"];
  Node0 -> Node2 [color="midnightblue",fontsize="10",style="solid"];
  Node2 [label="stdlib.h",height=0.2,width=0.4,color="grey75", fillcolor="white", style="filled"];
  Node0 -> Node3 [color="midnightblue",fontsize="10",style="solid"];
  Node3 [label="net-snmp/net-snmp-config.h",height=0.2,width=0.4,color="grey75", fillcolor="white", style="filled"];
  Node0 -> Node4 [color="midnightblue",fontsize="10",style="solid"];
  Node4 [label="net-snmp/net-snmp-includes.h",height=0.2,width=0.4,color="grey75", fillcolor="white", style="filled"];
  Node0 -> Node5 [color="midnightblue",fontsize="10",style="solid"];
  Node5 [label="net-snmp/agent/net\l-snmp-agent-includes.h",height=0.2,width=0.4,color="grey75", fillcolor="white", style="filled"];
  Node0 -> Node6 [color="midnightblue",fontsize="10",style="solid"];
  Node6 [label="glib.h",height=0.2,width=0.4,color="grey75", fillcolor="white", style="filled"];
  Node0 -> Node7 [color="midnightblue",fontsize="10",style="solid"];
  Node7 [label="check.h",height=0.2,width=0.4,color="grey75", fillcolor="white", style="filled"];
  Node0 -> Node8 [color="midnightblue",fontsize="10",style="solid"];
  Node8 [label="impl/framework.h",height=0.2,width=0.4,color="grey75", fillcolor="white", style="filled"];
  Node0 -> Node9 [color="midnightblue",fontsize="10",style="solid"];
  Node9 [label="pgmMIB.c",height=0.2,width=0.4,color="black", fillcolor="white", style="filled",URL="$pgm_m_i_b_8c.html"];
  Node9 -> Node3 [color="midnightblue",fontsize="10",style="solid"];
  Node9 -> Node4 [color="midnightblue",fontsize="10",style="solid"];
  Node9 -> Node5 [color="midnightblue",fontsize="10",style="solid"];
  Node9 -> Node10 [color="midnightblue",fontsize="10",style="solid"];
  Node10 [label="impl/i18n.h",height=0.2,width=0.4,color="grey75", fillcolor="white", style="filled"];
  Node9 -> Node8 [color="midnightblue",fontsize="10",style="solid"];
  Node9 -> Node11 [color="midnightblue",fontsize="10",style="solid"];
  Node11 [label="impl/receiver.h",height=0.2,width=0.4,color="grey75", fillcolor="white", style="filled"];
  Node9 -> Node12 [color="midnightblue",fontsize="10",style="solid"];
  Node12 [label="impl/socket.h",height=0.2,width=0.4,color="grey75", fillcolor="white", style="filled"];
  Node9 -> Node13 [color="midnightblue",fontsize="10",style="solid"];
  Node13 [label="pgm/snmp.h",height=0.2,width=0.4,color="grey75", fillcolor="white", style="filled"];
  Node9 -> Node14 [color="midnightblue",fontsize="10",style="solid"];
  Node14 [label="impl/pgmMIB.h",height=0.2,width=0.4,color="grey75", fillcolor="white", style="filled"];
  Node9 -> Node15 [color="midnightblue",fontsize="10",style="solid"];
  Node15 [label="impl/pgmMIB_columns.h",height=0.2,width=0.4,color="grey75", fillcolor="white", style="filled"];
  Node9 -> Node16 [color="midnightblue",fontsize="10",style="solid"];
  Node16 [label="impl/pgmMIB_enums.h",height=0.2,width=0.4,color="grey75", fillcolor="white", style="filled"];
}
