digraph "reed_solomon.c"
{
  edge [fontname="Helvetica",fontsize="10",labelfontname="Helvetica",labelfontsize="10"];
  node [fontname="Helvetica",fontsize="10",shape=record];
  Node2 [label="reed_solomon.c",height=0.2,width=0.4,color="black", fillcolor="grey75", style="filled", fontcolor="black"];
  Node2 -> Node3 [dir="back",color="midnightblue",fontsize="10",style="solid"];
  Node3 [label="reed_solomon_unittest.c",height=0.2,width=0.4,color="black", fillcolor="white", style="filled",URL="$reed__solomon__unittest_8c.html"];
}
