digraph "signal.c"
{
  edge [fontname="Helvetica",fontsize="10",labelfontname="Helvetica",labelfontsize="10"];
  node [fontname="Helvetica",fontsize="10",shape=record];
  Node0 [label="signal.c",height=0.2,width=0.4,color="black", fillcolor="grey75", style="filled", fontcolor="black"];
  Node0 -> Node1 [color="midnightblue",fontsize="10",style="solid"];
  Node1 [label="fcntl.h",height=0.2,width=0.4,color="grey75", fillcolor="white", style="filled"];
  Node0 -> Node2 [color="midnightblue",fontsize="10",style="solid"];
  Node2 [label="signal.h",height=0.2,width=0.4,color="grey75", fillcolor="white", style="filled"];
  Node0 -> Node3 [color="midnightblue",fontsize="10",style="solid"];
  Node3 [label="glib.h",height=0.2,width=0.4,color="grey75", fillcolor="white", style="filled"];
  Node0 -> Node4 [color="midnightblue",fontsize="10",style="solid"];
  Node4 [label="unistd.h",height=0.2,width=0.4,color="grey75", fillcolor="white", style="filled"];
  Node0 -> Node5 [color="midnightblue",fontsize="10",style="solid"];
  Node5 [label="pgm/pgm.h",height=0.2,width=0.4,color="grey75", fillcolor="white", style="filled"];
  Node0 -> Node6 [color="midnightblue",fontsize="10",style="solid"];
  Node6 [label="pgm/signal.h",height=0.2,width=0.4,color="grey75", fillcolor="white", style="filled"];
}
