digraph "MockMd5"
{
  edge [fontname="Helvetica",fontsize="10",labelfontname="Helvetica",labelfontsize="10"];
  node [fontname="Helvetica",fontsize="10",shape=record];
  Node2 [label="MockMd5",height=0.2,width=0.4,color="black", fillcolor="grey75", style="filled", fontcolor="black"];
  Node3 -> Node2 [dir="back",color="midnightblue",fontsize="10",style="solid",fontname="Helvetica"];
  Node3 [label="Md5",height=0.2,width=0.4,color="black", fillcolor="white", style="filled",URL="$class_pgm_1_1internal_1_1_md5.html"];
}
