digraph "pgm_snmp_context_t"
{
  edge [fontname="Helvetica",fontsize="10",labelfontname="Helvetica",labelfontsize="10"];
  node [fontname="Helvetica",fontsize="10",shape=record];
  Node1 [label="pgm_snmp_context_t",height=0.2,width=0.4,color="black", fillcolor="grey75", style="filled", fontcolor="black"];
  Node2 -> Node1 [dir="back",color="darkorchid3",fontsize="10",style="dashed",label=" data_context" ,fontname="Helvetica"];
  Node2 [label="pgm_snmp_data_context_t",height=0.2,width=0.4,color="black", fillcolor="white", style="filled",URL="$structpgm__snmp__data__context__t.html"];
}
